module socket_app

go 1.20

require (
	github.com/dgrijalva/jwt-go v3.2.0+incompatible
	github.com/gin-contrib/cors v1.4.0
	github.com/gin-gonic/gin v1.9.0
	github.com/go-redis/redis v6.15.9+incompatible
	github.com/gorilla/websocket v1.5.0
	github.com/joho/godotenv v1.5.1
	github.com/rabbitmq/amqp091-go v1.8.0
	go.mongodb.org/mongo-driver v1.11.3
)

require (
	github.com/andybalholm/brotli v1.0.4 // indirect
	github.com/bytedance/sonic v1.8.0 // indirect
	github.com/chenzhuoyu/base64x v0.0.0-20221115062448-fe3a3abad311 // indirect
	github.com/gin-contrib/sse v0.1.0 // indirect
	github.com/go-playground/locales v0.14.1 // indirect
	github.com/go-playground/universal-translator v0.18.1 // indirect
	github.com/go-playground/validator/v10 v10.11.2 // indirect
	github.com/goccy/go-json v0.10.0 // indirect
	github.com/gofiber/fiber v1.14.6 // indirect
	github.com/gofiber/fiber/v2 v2.42.0 // indirect
	github.com/gofiber/utils v0.0.10 // indirect
	github.com/golang/snappy v0.0.1 // indirect
	github.com/google/uuid v1.3.0 // indirect
	github.com/gorilla/schema v1.1.0 // indirect
	github.com/json-iterator/go v1.1.12 // indirect
	github.com/klauspost/compress v1.15.9 // indirect
	github.com/klauspost/cpuid/v2 v2.0.9 // indirect
	github.com/leodido/go-urn v1.2.1 // indirect
	github.com/mattn/go-colorable v0.1.13 // indirect
	github.com/mattn/go-isatty v0.0.17 // indirect
	github.com/mattn/go-runewidth v0.0.14 // indirect
	github.com/mitchellh/mapstructure v1.5.0 // indirect
	github.com/modern-go/concurrent v0.0.0-20180228061459-e0a39a4cb421 // indirect
	github.com/modern-go/reflect2 v1.0.2 // indirect
	github.com/mohae/deepcopy v0.0.0-20170929034955-c48cc78d4826 // indirect
	github.com/montanaflynn/stats v0.0.0-20171201202039-1bf9dbcd8cbe // indirect
	github.com/pelletier/go-toml/v2 v2.0.6 // indirect
	github.com/philhofer/fwd v1.1.1 // indirect
	github.com/pkg/errors v0.9.1 // indirect
	github.com/richardlehane/mscfb v1.0.4 // indirect
	github.com/richardlehane/msoleps v1.0.3 // indirect
	github.com/rivo/uniseg v0.2.0 // indirect
	github.com/rs/cors v1.8.3 // indirect
	github.com/savsgio/dictpool v0.0.0-20221023140959-7bf2e61cea94 // indirect
	github.com/savsgio/gotils v0.0.0-20220530130905-52f3993e8d6d // indirect
	github.com/tinylib/msgp v1.1.6 // indirect
	github.com/twitchyliquid64/golang-asm v0.15.1 // indirect
	github.com/ugorji/go/codec v1.2.9 // indirect
	github.com/valyala/bytebufferpool v1.0.0 // indirect
	github.com/valyala/fasthttp v1.44.0 // indirect
	github.com/valyala/tcplisten v1.0.0 // indirect
	github.com/xdg-go/pbkdf2 v1.0.0 // indirect
	github.com/xdg-go/scram v1.1.1 // indirect
	github.com/xdg-go/stringprep v1.0.3 // indirect
	github.com/xuri/efp v0.0.0-20220603152613-6918739fd470 // indirect
	github.com/xuri/excelize/v2 v2.7.0 // indirect
	github.com/xuri/nfp v0.0.0-20220409054826-5e722a1d9e22 // indirect
	github.com/youmark/pkcs8 v0.0.0-20181117223130-1be2e3e5546d // indirect
	golang.org/x/arch v0.0.0-20210923205945-b76863e36670 // indirect
	golang.org/x/crypto v0.5.0 // indirect
	golang.org/x/net v0.7.0 // indirect
	golang.org/x/sync v0.0.0-20220722155255-886fb9371eb4 // indirect
	golang.org/x/sys v0.5.0 // indirect
	golang.org/x/text v0.7.0 // indirect
	google.golang.org/protobuf v1.28.1 // indirect
	gopkg.in/yaml.v3 v3.0.1 // indirect
)
