[
  {
    "site":"https://www.football.london",
    "crawl_content":"CrawlContentFootballLondon",
    "crawl_url":"CollectUrlFootballLondon"
  },
  {
    "site":"https://www.marca.com",
    "crawl_content":"CrawlContentMarca",
    "crawl_url":"CollectUrlMarca"
  },
  {
    "site":"https://www.acmilaninfo.com",
    "crawl_content":"CrawlContentAcMilanInfo",
    "crawl_url":"CollectUrlAcMilanInfo"
  },
  {
    "site":"https://www.givemesport.com",
    "crawl_content":"CrawlContentGiveMeSport",
    "crawl_url":"CollectUrlGiveMeSport"
  },
  {
    "site":"https://en.psg.fr",
    "crawl_content":"CrawlContentPsg",
    "crawl_url":"CollectUrlPsg"
  },
  {
    "site":"https://www.skysports.com/football/news",
    "crawl_content":"CrawlContentSkySports",
    "crawl_url":"CollectUrlSkySports"
  },
  {
    "site":"https://www.realmadrid.com",
    "crawl_content":"CrawlContentRealMadrid",
    "crawl_url":"CollectUrlRealMadrid"
  }
]